<svg width="204" height="68" viewBox="0 0 204 68" fill="none" xmlns="http://www.w3.org/2000/svg">
<g clip-path="url(#clip0_20_515)">
<path d="M187.832 9.78767e-05H17.149C16.5268 9.78767e-05 15.9121 9.78768e-05 15.2916 0.00348168C14.7722 0.00686548 14.2569 0.0166954 13.7325 0.0249688C12.5932 0.0383379 11.4566 0.138286 10.3326 0.323944C9.21011 0.513645 8.12281 0.871284 7.10744 1.38477C6.09332 1.90259 5.16669 2.57545 4.36116 3.37894C3.55141 4.18017 2.87641 5.10628 2.36213 6.12166C1.84644 7.13503 1.48885 8.22094 1.30173 9.34189C1.11283 10.4614 1.01117 11.5939 0.997689 12.7291C0.981944 13.2478 0.980281 13.7683 0.971985 14.2871V53.3941C0.980281 53.9194 0.981944 54.4284 0.997689 54.9539C1.01118 56.089 1.11283 57.2214 1.30173 58.3409C1.48834 59.4625 1.84594 60.549 2.36213 61.5628C2.87618 62.5749 3.55127 63.4972 4.36116 64.294C5.16363 65.1011 6.09087 65.7744 7.10744 66.2882C8.1228 66.8031 9.20998 67.1629 10.3326 67.3555C11.4568 67.5397 12.5933 67.6396 13.7325 67.6546C14.2569 67.6661 14.7722 67.6727 15.2916 67.6727C15.9121 67.6761 16.5269 67.6761 17.149 67.6761H187.832C188.442 67.6761 189.062 67.6761 189.671 67.6727C190.188 67.6727 190.718 67.6661 191.235 67.6546C192.372 67.6404 193.507 67.5405 194.629 67.3555C195.755 67.1615 196.846 66.8018 197.866 66.2882C198.882 65.7741 199.808 65.1008 200.61 64.294C201.418 63.4941 202.094 62.5724 202.615 61.5628C203.127 60.5483 203.481 59.4618 203.665 58.3409C203.854 57.2212 203.96 56.0891 203.98 54.9539C203.987 54.4284 203.987 53.9194 203.987 53.3941C204 52.7794 204 52.1681 204 51.5435V16.1343C204 15.5147 204 14.9001 203.987 14.2871C203.987 13.7683 203.987 13.2478 203.98 12.729C203.96 11.5937 203.854 10.4615 203.665 9.34182C203.481 8.22152 203.127 7.13569 202.615 6.1216C201.568 4.08637 199.907 2.42971 197.866 1.38461C196.846 0.872386 195.755 0.514842 194.629 0.323792C193.507 0.137316 192.373 0.0373328 191.235 0.0247319C190.718 0.0164755 190.188 0.00656094 189.671 0.00326173C189.062 -0.00012207 188.442 -0.00012207 187.832 -0.00012207V9.78767e-05Z" fill="#A6A6A6"/>
<path d="M15.2999 66.1956C14.783 66.1956 14.2785 66.189 13.7656 66.1775C12.7032 66.1637 11.6432 66.0714 10.5944 65.9015C9.61641 65.7336 8.66902 65.4212 7.78347 64.9745C6.90603 64.5317 6.10574 63.9509 5.41325 63.2546C4.71073 62.5664 4.12586 61.7683 3.6818 60.8918C3.23285 60.0096 2.92214 59.0641 2.76052 58.088C2.58597 57.0392 2.49154 55.9787 2.47803 54.9157C2.46727 54.5589 2.45319 53.3708 2.45319 53.3708V14.287C2.45319 14.287 2.46818 13.1172 2.47811 12.7735C2.49105 11.7121 2.58493 10.6533 2.75896 9.60615C2.92088 8.62742 3.23182 7.6791 3.68102 6.79404C4.12344 5.91817 4.70507 5.11945 5.40335 4.42885C6.10085 3.73169 6.9037 3.14795 7.78263 2.69893C8.66616 2.25376 9.61175 1.94354 10.5877 1.77864C11.64 1.60702 12.7037 1.51424 13.7698 1.50107L15.3007 1.48041H189.663L191.212 1.50189C192.269 1.51441 193.323 1.60637 194.365 1.77698C195.351 1.94395 196.307 2.25634 197.2 2.70389C198.961 3.60879 200.394 5.04044 201.298 6.79817C201.74 7.67712 202.046 8.6177 202.206 9.58798C202.382 10.6437 202.48 11.7109 202.501 12.7809C202.505 13.2601 202.505 13.7748 202.505 14.287C202.519 14.9214 202.519 15.5253 202.519 16.1342V51.5434C202.519 52.1581 202.519 52.7578 202.505 53.3625C202.505 53.9127 202.505 54.4168 202.499 54.9355C202.479 55.9865 202.382 57.0346 202.209 58.0714C202.051 59.0545 201.742 60.0075 201.293 60.8969C200.845 61.7639 200.264 62.5551 199.57 63.2414C198.876 63.9414 198.075 64.5256 197.195 64.9713C196.304 65.4214 195.35 65.735 194.365 65.9015C193.316 66.0724 192.256 66.1646 191.194 66.1775C190.697 66.189 190.177 66.1956 189.671 66.1956L187.832 66.199L15.2999 66.1956Z" fill="black"/>
<path d="M42.9961 34.3467C43.0144 32.9346 43.3905 31.5499 44.0896 30.3217C44.7886 29.0935 45.7879 28.0615 46.9944 27.3219C46.2279 26.2303 45.2168 25.332 44.0413 24.6983C42.8659 24.0646 41.5584 23.7129 40.2228 23.6713C37.3737 23.3731 34.6116 25.3713 33.1598 25.3713C31.6799 25.3713 29.4445 23.7009 27.0374 23.7503C25.4805 23.8004 23.9631 24.2519 22.6331 25.0607C21.3031 25.8696 20.2059 27.0082 19.4484 28.3655C16.1671 34.0307 18.6147 42.3567 21.7579 46.936C23.3306 49.1783 25.1685 51.6831 27.5734 51.5943C29.9268 51.497 30.8057 50.0978 33.6464 50.0978C36.4607 50.0978 37.2854 51.5943 39.7391 51.5378C42.2643 51.4969 43.8554 49.2855 45.3728 47.0219C46.5027 45.4241 47.3722 43.6583 47.949 41.7897C46.4819 41.1709 45.2299 40.1352 44.3492 38.8116C43.4684 37.488 42.9978 35.9352 42.9961 34.3467Z" fill="white"/>
<path d="M38.3615 20.6597C39.7384 19.0114 40.4167 16.8929 40.2525 14.7539C38.1489 14.9742 36.2058 15.9768 34.8103 17.5618C34.128 18.3361 33.6055 19.237 33.2725 20.2128C32.9395 21.1886 32.8027 22.2203 32.8698 23.2489C33.922 23.2597 34.9629 23.0323 35.9142 22.5838C36.8654 22.1353 37.7022 21.4774 38.3615 20.6597Z" fill="white"/>
<path d="M72.7441 45.9176H64.7132L62.7846 51.5964H59.383L66.9898 30.5864H70.5239L78.1306 51.5964H74.671L72.7441 45.9176ZM65.5449 43.2971H71.9108L68.7726 34.0809H68.6848L65.5449 43.2971Z" fill="white"/>
<path d="M94.5587 43.9382C94.5587 48.6983 92.0038 51.7566 88.1482 51.7566C87.1715 51.8075 86.2002 51.5832 85.3454 51.1092C84.4907 50.6352 83.787 49.9308 83.3151 49.0766H83.2421V56.6637H80.0891V36.2783H83.1411V38.8261H83.1991C83.6927 37.976 84.4083 37.2752 85.2695 36.7984C86.1308 36.3215 87.1056 36.0864 88.0902 36.1181C91.9888 36.1181 94.5587 39.1912 94.5587 43.9382ZM91.3178 43.9382C91.3178 40.8369 89.7106 38.798 87.2584 38.798C84.8493 38.798 83.2289 40.8798 83.2289 43.9382C83.2289 47.0246 84.8493 49.0915 87.2584 49.0915C89.7106 49.0915 91.3178 47.0675 91.3178 43.9382Z" fill="white"/>
<path d="M111.465 43.9383C111.465 48.6984 108.911 51.7567 105.055 51.7567C104.078 51.8076 103.107 51.5833 102.252 51.1093C101.397 50.6353 100.694 49.9309 100.222 49.0767H100.149V56.6638H96.9959V36.2784H100.048V38.8262H100.106C100.599 37.9761 101.315 37.2753 102.176 36.7985C103.038 36.3216 104.012 36.0865 104.997 36.1182C108.896 36.1182 111.465 39.1913 111.465 43.9383ZM108.225 43.9383C108.225 40.837 106.617 38.7981 104.165 38.7981C101.756 38.7981 100.136 40.8799 100.136 43.9383C100.136 47.0247 101.756 49.0916 104.165 49.0916C106.617 49.0916 108.225 47.0676 108.225 43.9383H108.225Z" fill="white"/>
<path d="M122.64 45.7424C122.873 47.8259 124.903 49.1939 127.676 49.1939C130.334 49.1939 132.246 47.8259 132.246 45.9472C132.246 44.3165 131.093 43.34 128.362 42.6708L125.632 42.0149C121.763 41.083 119.967 39.2788 119.967 36.351C119.967 32.726 123.135 30.236 127.633 30.236C132.085 30.236 135.137 32.726 135.24 36.351H132.057C131.867 34.2543 130.129 32.9887 127.589 32.9887C125.049 32.9887 123.311 34.2692 123.311 36.1329C123.311 37.6183 124.421 38.4923 127.136 39.1614L129.458 39.7298C133.78 40.7492 135.576 42.4808 135.576 45.5539C135.576 49.4846 132.437 51.9465 127.443 51.9465C122.77 51.9465 119.616 49.5425 119.412 45.7423L122.64 45.7424Z" fill="white"/>
<path d="M142.381 32.6533V36.2784H145.302V38.7683H142.381V47.2129C142.381 48.5248 142.966 49.1361 144.25 49.1361C144.597 49.1301 144.943 49.1058 145.287 49.0634V51.5384C144.71 51.646 144.123 51.6947 143.536 51.6838C140.426 51.6838 139.213 50.519 139.213 47.5483V38.7683H136.98V36.2784H139.213V32.6533H142.381Z" fill="white"/>
<path d="M146.994 43.9382C146.994 39.1186 149.841 36.09 154.279 36.09C158.733 36.09 161.566 39.1185 161.566 43.9382C161.566 48.771 158.748 51.7864 154.279 51.7864C149.812 51.7864 146.994 48.771 146.994 43.9382ZM158.354 43.9382C158.354 40.6321 156.834 38.6807 154.279 38.6807C151.725 38.6807 150.207 40.6469 150.207 43.9382C150.207 47.2575 151.725 49.194 154.279 49.194C156.834 49.194 158.354 47.2575 158.354 43.9382H158.354Z" fill="white"/>
<path d="M164.166 36.2784H167.173V38.8856H167.246C167.45 38.0714 167.928 37.3517 168.601 36.8478C169.274 36.3438 170.1 36.0861 170.941 36.1181C171.304 36.1169 171.667 36.1562 172.021 36.2355V39.1765C171.563 39.0367 171.084 38.9725 170.605 38.9865C170.147 38.9679 169.69 39.0485 169.266 39.2225C168.842 39.3966 168.461 39.6601 168.149 39.9949C167.837 40.3297 167.601 40.7279 167.458 41.1622C167.315 41.5964 167.267 42.0565 167.319 42.5107V51.5964H164.166L164.166 36.2784Z" fill="white"/>
<path d="M186.559 47.0973C186.135 49.878 183.419 51.7864 179.945 51.7864C175.476 51.7864 172.702 48.8007 172.702 44.0109C172.702 39.2062 175.491 36.09 179.812 36.09C184.062 36.09 186.735 39.0013 186.735 43.6457V44.723H175.885V44.913C175.835 45.4768 175.906 46.0447 176.093 46.579C176.28 47.1134 176.579 47.602 176.969 48.0124C177.36 48.4227 177.834 48.7455 178.36 48.9592C178.885 49.1729 179.45 49.2726 180.017 49.2518C180.763 49.3214 181.51 49.1493 182.149 48.7612C182.789 48.373 183.285 47.7894 183.565 47.0973L186.559 47.0973ZM175.9 42.5255H183.58C183.608 42.0186 183.531 41.5114 183.353 41.0356C183.176 40.5598 182.902 40.1258 182.548 39.7607C182.194 39.3957 181.768 39.1075 181.298 38.9143C180.827 38.721 180.321 38.6269 179.812 38.6378C179.299 38.6347 178.79 38.7331 178.314 38.9272C177.839 39.1214 177.407 39.4074 177.044 39.7689C176.68 40.1303 176.392 40.56 176.195 41.0331C175.999 41.5063 175.899 42.0135 175.9 42.5255V42.5255Z" fill="white"/>
<path d="M63.304 19.0397H64.6577C64.8907 19.0686 65.1272 19.0491 65.3523 18.9824C65.5774 18.9156 65.7862 18.8031 65.9655 18.6519C66.1449 18.5007 66.2908 18.3142 66.3943 18.1039C66.4977 17.8937 66.5563 17.6644 66.5664 17.4304C66.5664 16.4994 65.8639 15.8979 64.6726 15.8979C64.4339 15.8647 64.1909 15.8794 63.9579 15.9414C63.725 16.0033 63.5069 16.1112 63.3165 16.2586C63.126 16.406 62.9672 16.5899 62.8492 16.7995C62.7312 17.0092 62.6566 17.2403 62.6297 17.4791H61.1434C61.169 17.0455 61.2838 16.6218 61.4807 16.2343C61.6777 15.8468 61.9524 15.5039 62.288 15.227C62.6236 14.95 63.0127 14.7449 63.4312 14.6244C63.8498 14.5039 64.2887 14.4706 64.7206 14.5266C66.7138 14.5266 68.1173 15.6394 68.1173 17.2412C68.122 17.7778 67.942 18.2998 67.6072 18.7201C67.2725 19.1403 66.8034 19.4333 66.2782 19.5502V19.6692C66.9008 19.6967 67.4872 19.969 67.9092 20.4264C68.3311 20.8839 68.5543 21.4893 68.5299 22.1104C68.4838 22.5569 68.3488 22.9897 68.1328 23.3835C67.9168 23.7772 67.6242 24.124 67.272 24.4036C66.9199 24.6831 66.5153 24.8897 66.082 25.0113C65.6487 25.1329 65.1955 25.167 64.7488 25.1117C64.3012 25.1725 63.8459 25.1429 63.4101 25.0245C62.9742 24.9062 62.5667 24.7015 62.2119 24.4227C61.857 24.144 61.5621 23.7968 61.3446 23.402C61.1272 23.0071 60.9917 22.5726 60.9463 22.1244H62.4557C62.5468 23.0902 63.4366 23.7131 64.7488 23.7131C66.0611 23.7131 66.9177 23.0134 66.9177 22.027C66.9177 21.0266 66.1108 20.4103 64.7008 20.4103H63.304V19.0397Z" fill="white"/>
<path d="M70.2447 22.7126C70.2447 21.3413 71.2703 20.5507 73.0863 20.4383L75.1557 20.3194V19.6618C75.1557 18.8571 74.6239 18.4028 73.5916 18.4028C72.7499 18.4028 72.1684 18.7109 71.9994 19.2495H70.5396C70.6937 17.941 71.9298 17.1016 73.6629 17.1016C75.5782 17.1016 76.6585 18.0525 76.6585 19.6618V24.8672H75.2054V23.7965H75.0861C74.844 24.1806 74.504 24.4937 74.1008 24.7038C73.6977 24.914 73.2458 25.0136 72.7914 24.9927C72.4706 25.026 72.1465 24.9918 71.8398 24.8925C71.5331 24.7932 71.2507 24.6309 71.0108 24.4161C70.7708 24.2013 70.5787 23.9387 70.4467 23.6453C70.3148 23.3519 70.246 23.0342 70.2447 22.7126ZM75.1557 22.0616V21.4247L73.29 21.5437C72.2379 21.6139 71.7607 21.9708 71.7607 22.6424C71.7607 23.3281 72.3572 23.7271 73.1774 23.7271C73.4177 23.7514 73.6605 23.7272 73.8912 23.656C74.122 23.5848 74.336 23.468 74.5206 23.3126C74.7052 23.1572 74.8565 22.9664 74.9657 22.7515C75.0748 22.5366 75.1394 22.302 75.1557 22.0616Z" fill="white"/>
<path d="M80.6599 18.5143V24.8672H79.1521V17.2487H84.1825V18.5142L80.6599 18.5143Z" fill="white"/>
<path d="M93.3201 21.0546C93.3201 23.4751 92.0924 24.9927 90.1638 24.9927C89.6903 25.0249 89.2175 24.9216 88.801 24.6949C88.3845 24.4682 88.0416 24.1275 87.8126 23.713H87.6933V27.4H86.1856V17.2486H87.637V18.5077H87.7497C87.9827 18.0787 88.3301 17.7223 88.7535 17.4778C89.1768 17.2333 89.6597 17.1103 90.1488 17.1223C92.0924 17.1222 93.3201 18.6332 93.3201 21.0546ZM91.7693 21.0546C91.7693 19.4453 91.0055 18.4729 89.728 18.4729C88.4589 18.4729 87.6652 19.4659 87.6652 21.0612C87.6652 22.649 88.4588 23.6428 89.7214 23.6428C91.0055 23.6428 91.7693 22.6704 91.7693 21.0546Z" fill="white"/>
<path d="M95.3283 27.5959V26.3013C95.4915 26.322 95.6559 26.3314 95.8203 26.3294C96.1416 26.3531 96.4603 26.2577 96.7153 26.0615C96.9703 25.8653 97.1437 25.5821 97.2022 25.2662L97.3148 24.8952L94.5495 17.2487H96.1915L98.1069 23.3H98.2262L100.135 17.2487H101.734L98.8857 25.1819C98.2328 27.0357 97.5104 27.6306 95.953 27.6306C95.827 27.6305 95.4691 27.6165 95.3283 27.5959Z" fill="white"/>
<path d="M102.909 22.7052H104.41C104.557 23.3769 105.188 23.7271 106.072 23.7271C107.076 23.7271 107.692 23.286 107.692 22.6003C107.692 21.8659 107.139 21.5156 106.072 21.5156H104.928V20.3475H106.052C106.963 20.3475 107.427 19.998 107.427 19.3611C107.427 18.8018 106.978 18.3747 106.052 18.3747C105.208 18.3747 104.592 18.7316 104.494 19.333H103.041C103.15 18.642 103.526 18.021 104.089 17.6037C104.652 17.1864 105.357 17.0062 106.052 17.1017C107.868 17.1017 108.906 17.9204 108.906 19.2075C108.915 19.5659 108.8 19.9163 108.58 20.2002C108.361 20.4841 108.05 20.6843 107.7 20.7672V20.8861C108.117 20.9397 108.499 21.1439 108.774 21.4598C109.05 21.7758 109.199 22.1817 109.195 22.6003C109.195 24.0486 107.959 25.0068 106.072 25.0068C104.403 25.0068 103.048 24.2443 102.909 22.7052Z" fill="white"/>
<path d="M111.366 24.8672V17.2487H112.861V22.4888H112.98L116.501 17.2487H117.995V24.8672H116.501V19.599H116.388L112.861 24.8672L111.366 24.8672Z" fill="white"/>
<path d="M126.228 18.5143H123.822V24.8672H122.313V18.5143H119.907V17.2488H126.228V18.5143Z" fill="white"/>
<path d="M134.35 22.8101C134.145 23.5063 133.701 24.1085 133.095 24.5113C132.49 24.9142 131.762 25.0922 131.038 25.0142C130.535 25.0274 130.035 24.9313 129.572 24.7324C129.11 24.5336 128.697 24.2368 128.361 23.8627C128.025 23.4885 127.775 23.046 127.628 22.5658C127.481 22.0856 127.44 21.5792 127.509 21.0818C127.442 20.5829 127.483 20.0755 127.63 19.5938C127.777 19.1122 128.026 18.6676 128.36 18.2902C128.694 17.9128 129.105 17.6113 129.566 17.4063C130.027 17.2012 130.527 17.0973 131.032 17.1016C133.157 17.1016 134.442 18.5498 134.442 20.9422V21.4668H129.047V21.5511C129.023 21.8307 129.058 22.1123 129.15 22.3776C129.241 22.6429 129.388 22.8862 129.579 23.0917C129.771 23.2973 130.004 23.4606 130.262 23.5711C130.521 23.6817 130.8 23.737 131.081 23.7336C131.442 23.7766 131.807 23.7118 132.13 23.5473C132.454 23.3828 132.721 23.1262 132.897 22.81L134.35 22.8101ZM129.047 20.3549H132.904C132.923 20.0993 132.888 19.8426 132.802 19.6012C132.716 19.3598 132.58 19.1391 132.403 18.9533C132.226 18.7674 132.012 18.6205 131.774 18.522C131.537 18.4235 131.282 18.3756 131.025 18.3813C130.764 18.3777 130.505 18.4264 130.264 18.5243C130.022 18.6222 129.802 18.7675 129.618 18.9515C129.434 19.1355 129.288 19.3544 129.19 19.5955C129.092 19.8365 129.043 20.0947 129.047 20.3549H129.047Z" fill="white"/>
<path d="M140.743 17.2487H144.187C145.682 17.2487 146.558 18.0037 146.558 19.1859C146.561 19.561 146.434 19.9255 146.199 20.2185C145.964 20.5114 145.635 20.715 145.268 20.7952V20.9141C145.714 20.9422 146.132 21.1402 146.436 21.467C146.74 21.7939 146.907 22.2247 146.901 22.6705C146.901 23.9997 145.899 24.8671 144.222 24.8671H140.743V17.2487ZM142.237 18.4028V20.3755H143.732C144.643 20.3755 145.079 20.0261 145.079 19.3817C145.079 18.7877 144.699 18.4027 143.899 18.4027L142.237 18.4028ZM142.237 21.4809V23.7131H144.025C144.916 23.7131 145.394 23.3207 145.394 22.6003C145.394 21.8378 144.853 21.4809 143.836 21.4809L142.237 21.4809Z" fill="white"/>
</g>
<defs>
<clipPath id="clip0_20_515">
<rect width="203.028" height="67.676" fill="white" transform="translate(0.971985)"/>
</clipPath>
</defs>
</svg>
